PMV_BD8_kmeans
…
stations_groupby_postal = group_by(bixistations,postal_short)    
stations_by_group = summarise(stations_groupby_postal,n=n())
stations_by_group = stations_by_group[order(stations_by_group$n,decreasing = TRUE),]
stations_by_group

## # A tibble: 51 x 2
##    postal_short     n
##    <chr>        <int>
##  1 H2J             30
##  2 H2S             25
##  3 H2L             22
##  4 H2X             20
##  5 H2K             18
##  6 H2T             17
##  7 H2V             17
##  8 H3C             16
##  9 H2H             15
## 10 H2G             14
## # ... with 41 more rows
…
